<svg width="50" height="50" viewBox="0 0 50 50" fill="none" xmlns="http://www.w3.org/2000/svg">
<path d="M22.7001 34.7L21.3 33.3L29.6 25L21.3 16.7L22.7001 15.3L32.4001 25L22.7001 34.7Z" fill="black"/>
</svg>
