<svg width="50" height="50" viewBox="0 0 50 50" fill="none" xmlns="http://www.w3.org/2000/svg">
<path d="M27.3001 34.7L17.6001 25L27.3001 15.3L28.7001 16.7L20.4001 25L28.7001 33.3L27.3001 34.7Z" fill="black"/>
</svg>
